…
``` r
# tibble
(iris_t <- as_tibble(iris)) 
```

    ## # A tibble: 150 x 5
    ##    Sepal.Length Sepal.Width Petal.Length Petal.Width Species
    ##           <dbl>       <dbl>        <dbl>       <dbl> <fct>  
    ##  1          5.1         3.5          1.4         0.2 setosa 
    ##  2          4.9         3            1.4         0.2 setosa 
    ##  3          4.7         3.2          1.3         0.2 setosa 
    ##  4          4.6         3.1          1.5         0.2 setosa 
    ##  5          5           3.6          1.4         0.2 setosa 
    ##  6          5.4         3.9          1.7         0.4 setosa 
    ##  7          4.6         3.4          1.4         0.3 setosa 
    ##  8          5           3.4          1.5         0.2 setosa 
    ##  9          4.4         2.9          1.4         0.2 setosa 
    ## 10          4.9         3.1          1.5         0.1 setosa 
    ## # … with 140 more rows
…
-   Chapter 5 in R4DS
-   Using `nycflights13::flights`. (Sorry not biology). This data frame
    contains all 336,776 flights that departed from New York City
    in 2013. Each row contains data from a single flight. The data comes
    from the US Bureau of Transportation Statistics, and is documented
    in `?flights`. Let’s have a look:

``` r
flights
```

    ## # A tibble: 336,776 x 19
    ##     year month   day dep_time sched_dep_time dep_delay arr_time sched_arr_time
    ##    <int> <int> <int>    <int>          <int>     <dbl>    <int>          <int>
    ##  1  2013     1     1      517            515         2      830            819
    ##  2  2013     1     1      533            529         4      850            830
    ##  3  2013     1     1      542            540         2      923            850
    ##  4  2013     1     1      544            545        -1     1004           1022
    ##  5  2013     1     1      554            600        -6      812            837
    ##  6  2013     1     1      554            558        -4      740            728
    ##  7  2013     1     1      555            600        -5      913            854
    ##  8  2013     1     1      557            600        -3      709            723
    ##  9  2013     1     1      557            600        -3      838            846
    ## 10  2013     1     1      558            600        -2      753            745
    ## # … with 336,766 more rows, and 11 more variables: arr_delay <dbl>,
    ## #   carrier <chr>, flight <int>, tailnum <chr>, origin <chr>, dest <chr>,
    ## #   air_time <dbl>, distance <dbl>, hour <dbl>, minute <dbl>, time_hour <dttm>
…
## Verb: `filter()`

-   Acts on rows

### Find United Airlines flights

``` r
filter(flights, carrier == "UA")
```

    ## # A tibble: 58,665 x 19
    ##     year month   day dep_time sched_dep_time dep_delay arr_time sched_arr_time
    ##    <int> <int> <int>    <int>          <int>     <dbl>    <int>          <int>
    ##  1  2013     1     1      517            515         2      830            819
    ##  2  2013     1     1      533            529         4      850            830
    ##  3  2013     1     1      554            558        -4      740            728
    ##  4  2013     1     1      558            600        -2      924            917
    ##  5  2013     1     1      558            600        -2      923            937
    ##  6  2013     1     1      559            600        -1      854            902
    ##  7  2013     1     1      607            607         0      858            915
    ##  8  2013     1     1      611            600        11      945            931
    ##  9  2013     1     1      623            627        -4      933            932
    ## 10  2013     1     1      628            630        -2     1016            947
    ## # … with 58,655 more rows, and 11 more variables: arr_delay <dbl>,
    ## #   carrier <chr>, flight <int>, tailnum <chr>, origin <chr>, dest <chr>,
    ## #   air_time <dbl>, distance <dbl>, hour <dbl>, minute <dbl>, time_hour <dttm>

``` r
# with forward pipe
flights %>% filter(., carrier == "UA")
```

    ## # A tibble: 58,665 x 19
    ##     year month   day dep_time sched_dep_time dep_delay arr_time sched_arr_time
    ##    <int> <int> <int>    <int>          <int>     <dbl>    <int>          <int>
    ##  1  2013     1     1      517            515         2      830            819
    ##  2  2013     1     1      533            529         4      850            830
    ##  3  2013     1     1      554            558        -4      740            728
    ##  4  2013     1     1      558            600        -2      924            917
    ##  5  2013     1     1      558            600        -2      923            937
    ##  6  2013     1     1      559            600        -1      854            902
    ##  7  2013     1     1      607            607         0      858            915
    ##  8  2013     1     1      611            600        11      945            931
    ##  9  2013     1     1      623            627        -4      933            932
    ## 10  2013     1     1      628            630        -2     1016            947
    ## # … with 58,655 more rows, and 11 more variables: arr_delay <dbl>,
    ## #   carrier <chr>, flight <int>, tailnum <chr>, origin <chr>, dest <chr>,
    ## #   air_time <dbl>, distance <dbl>, hour <dbl>, minute <dbl>, time_hour <dttm>

``` r
flights %>% filter(carrier == "UA") # dot placeholder is implied
```

    ## # A tibble: 58,665 x 19
    ##     year month   day dep_time sched_dep_time dep_delay arr_time sched_arr_time
    ##    <int> <int> <int>    <int>          <int>     <dbl>    <int>          <int>
    ##  1  2013     1     1      517            515         2      830            819
    ##  2  2013     1     1      533            529         4      850            830
    ##  3  2013     1     1      554            558        -4      740            728
    ##  4  2013     1     1      558            600        -2      924            917
    ##  5  2013     1     1      558            600        -2      923            937
    ##  6  2013     1     1      559            600        -1      854            902
    ##  7  2013     1     1      607            607         0      858            915
    ##  8  2013     1     1      611            600        11      945            931
    ##  9  2013     1     1      623            627        -4      933            932
    ## 10  2013     1     1      628            630        -2     1016            947
    ## # … with 58,655 more rows, and 11 more variables: arr_delay <dbl>,
    ## #   carrier <chr>, flight <int>, tailnum <chr>, origin <chr>, dest <chr>,
    ## #   air_time <dbl>, distance <dbl>, hour <dbl>, minute <dbl>, time_hour <dttm>
…
    ## # A tibble: 0 x 19
    ## # … with 19 variables: year <int>, month <int>, day <int>, dep_time <int>,
    ## #   sched_dep_time <int>, dep_delay <dbl>, arr_time <int>,
    ## #   sched_arr_time <int>, arr_delay <dbl>, carrier <chr>, flight <int>,
    ## #   tailnum <chr>, origin <chr>, dest <chr>, air_time <dbl>, distance <dbl>,
    ## #   hour <dbl>, minute <dbl>, time_hour <dttm>

Wrong, trying to combine levels within one variable, use OR

``` r
flights %>% filter(carrier == "UA" | carrier == "AA")
```

    ## # A tibble: 91,394 x 19
    ##     year month   day dep_time sched_dep_time dep_delay arr_time sched_arr_time
    ##    <int> <int> <int>    <int>          <int>     <dbl>    <int>          <int>
    ##  1  2013     1     1      517            515         2      830            819
    ##  2  2013     1     1      533            529         4      850            830
    ##  3  2013     1     1      542            540         2      923            850
    ##  4  2013     1     1      554            558        -4      740            728
    ##  5  2013     1     1      558            600        -2      753            745
    ##  6  2013     1     1      558            600        -2      924            917
    ##  7  2013     1     1      558            600        -2      923            937
    ##  8  2013     1     1      559            600        -1      941            910
    ##  9  2013     1     1      559            600        -1      854            902
    ## 10  2013     1     1      606            610        -4      858            910
    ## # … with 91,384 more rows, and 11 more variables: arr_delay <dbl>,
    ## #   carrier <chr>, flight <int>, tailnum <chr>, origin <chr>, dest <chr>,
    ## #   air_time <dbl>, distance <dbl>, hour <dbl>, minute <dbl>, time_hour <dttm>

Better: use value matching function `%in%`

``` r
flights %>% filter(carrier %in% c("UA", "AA"))
```

    ## # A tibble: 91,394 x 19
    ##     year month   day dep_time sched_dep_time dep_delay arr_time sched_arr_time
    ##    <int> <int> <int>    <int>          <int>     <dbl>    <int>          <int>
    ##  1  2013     1     1      517            515         2      830            819
    ##  2  2013     1     1      533            529         4      850            830
    ##  3  2013     1     1      542            540         2      923            850
    ##  4  2013     1     1      554            558        -4      740            728
    ##  5  2013     1     1      558            600        -2      753            745
    ##  6  2013     1     1      558            600        -2      924            917
    ##  7  2013     1     1      558            600        -2      923            937
    ##  8  2013     1     1      559            600        -1      941            910
    ##  9  2013     1     1      559            600        -1      854            902
    ## 10  2013     1     1      606            610        -4      858            910
    ## # … with 91,384 more rows, and 11 more variables: arr_delay <dbl>,
    ## #   carrier <chr>, flight <int>, tailnum <chr>, origin <chr>, dest <chr>,
    ## #   air_time <dbl>, distance <dbl>, hour <dbl>, minute <dbl>, time_hour <dttm>

### Find United Airlines or American Airlines flights longer than 1200 miles in July

Use AND to combine across variables

``` r
flights %>% filter(carrier %in% c("UA", "AA") & distance > 1200 & month == 7)
```

    ## # A tibble: 4,465 x 19
    ##     year month   day dep_time sched_dep_time dep_delay arr_time sched_arr_time
    ##    <int> <int> <int>    <int>          <int>     <dbl>    <int>          <int>
    ##  1  2013     7     1       44           2150       174      300            100
    ##  2  2013     7     1      538            540        -2      800            810
    ##  3  2013     7     1      547            548        -1      903            851
    ##  4  2013     7     1      548            545         3      815            819
    ##  5  2013     7     1      557            600        -3      828            907
    ##  6  2013     7     1      600            600         0      836            830
    ##  7  2013     7     1      606            610        -4      847            924
    ##  8  2013     7     1      625            630        -5      902            905
    ##  9  2013     7     1      634            630         4      919            930
    ## 10  2013     7     1      635            640        -5     1034           1040
    ## # … with 4,455 more rows, and 11 more variables: arr_delay <dbl>,
    ## #   carrier <chr>, flight <int>, tailnum <chr>, origin <chr>, dest <chr>,
    ## #   air_time <dbl>, distance <dbl>, hour <dbl>, minute <dbl>, time_hour <dttm>
…
Chat your answers to Art as quickly as you can…

``` r
# answer...
```

## Verb: `select()`

-   Acts on columns

``` r
flights %>% select(distance, air_time)
```

    ## # A tibble: 336,776 x 2
    ##    distance air_time
    ##       <dbl>    <dbl>
    ##  1     1400      227
    ##  2     1416      227
    ##  3     1089      160
    ##  4     1576      183
    ##  5      762      116
    ##  6      719      150
    ##  7     1065      158
    ##  8      229       53
    ##  9      944      140
    ## 10      733      138
    ## # … with 336,766 more rows
…
``` r
flights %>% 
    select(distance, air_time) %>% 
    glimpse() %>% # in-line view with `glimpse()`
    mutate(speed_mph = distance / (air_time / 60))
```

    ## Rows: 336,776
    ## Columns: 2
    ## $ distance <dbl> 1400, 1416, 1089, 1576, 762, 719, 1065, 229, 944, 733, 1028, …
    ## $ air_time <dbl> 227, 227, 160, 183, 116, 150, 158, 53, 140, 138, 149, 158, 34…

    ## # A tibble: 336,776 x 3
    ##    distance air_time speed_mph
    ##       <dbl>    <dbl>     <dbl>
    ##  1     1400      227      370.
    ##  2     1416      227      374.
    ##  3     1089      160      408.
    ##  4     1576      183      517.
    ##  5      762      116      394.
    ##  6      719      150      288.
    ##  7     1065      158      404.
    ##  8      229       53      259.
    ##  9      944      140      405.
    ## 10      733      138      319.
    ## # … with 336,766 more rows
…
